…
``` r
# Save the results
write_csv(results, "../output/64-exon-expression/exon-summary.csv")

# Print the results
print(results)
```

    ## # A tibble: 38,838 × 8
    ## # Groups:   gene_name [38,838]
    ##    gene_name         slope_best_fit r_squared percentage_within_95_CI num_exons
    ##    <chr>                      <dbl>     <dbl>                   <dbl>     <dbl>
    ##  1 gene-LOC111116054         -60.5    0.907                     100           3
    ##  2 gene-LOC111126949          -2.00   0.00230                   100           5
    ##  3 gene-LOC111110729         -82.1    0.759                     100           4
    ##  4 gene-LOC111112434          49.5    0.868                     100           3
    ##  5 gene-LOC111120752           1.4    0.00586                   100           5
    ##  6 gene-LOC111128944          NA      0                          NA           1
    ##  7 gene-LOC111128953         -87.0    1                          NA           2
    ##  8 gene-LOC111105691          10.1    0.0825                     87.5         8
    ##  9 gene-LOC111105685         150      1                          NA           2
    ## 10 gene-LOC111105702          -0.2    0.100                     100           4
    ## # ℹ 38,828 more rows
    ## # ℹ 3 more variables: mean_exon_expression <dbl>,
    ## #   std_dev_exon_expression <dbl>, sum_exon_expression <dbl>
…
