76 max transcript methylation
…
lets join

fmmax <- fmcoe_max_predom_isos %>%
  left_join(female_tr, by = "gene_name") %>%
  select(gene_name, control_females_max_transcript_counts.x, exposed_females_max_transcript_counts.x, difference)

lets join methylation data

female_40_meth <- read_csv("../output/73-gene-methylation/female_40_meth.csv") %>%
  mutate(name = str_replace(name, "gene-", ""))

structure(female_40_meth)

# A tibble: 38,523 × 3
   name         average_control average_exposed
   <chr>                  <dbl>           <dbl>
 1 ATP6                   1.22            1.49 
 2 COX1                   1.13            1.32 
 3 COX2                   1.20            1.36 
 4 COX3                   0.992           1.12 
 5 CYTB                   1.14            1.36 
 6 LOC111099029          52.9            57.3  
 7 LOC111099030           0.371           0.293
 8 LOC111099031           0.443           0.752
 9 LOC111099032           0.251           0.250
10 LOC111099033           0.380           0.311
# ℹ 38,513 more rows
…
